Mid2.utf8
…
=2.5 
 (ID)[15%]

KH$villArea=st_area(KH)
Fire2500=st_buffer(Fire,2500)
inter=st_intersection(KH,Fire2500)
inter$area=st_area(inter)
inter$elder=round(inter$A65UP_CNT*inter$area/inter$villArea)%>%as.numeric
Fire_POP=inter%>%group_by(ID)%>%summarise(NAME=NAME[1],resource=resource[1],elder=sum(elder))%>%st_drop_geometry
Fire_POP$Rj=round(Fire_POP$resource/Fire_POP$elder*10^4,2)
Fire_POP[,c(1,2,5)]

# A tibble: 23 x 3
      ID NAME        Rj
   <dbl> <chr>    <dbl>
 1     1   7.03
 2     2   1.37
 3     3   2.21
 4     4   2.84
 5     5   0.97
 6     6   8.89
 7     7   7.26
 8     8   2.13
 9     9   9.71
10    10   4.32
# ... with 13 more rows
…
